\babel@toc {english}{}
\contentsline {chapter}{\numberline {1}Foo}{1}{chapter.1}
\contentsline {section}{\numberline {1.1}Introduction}{1}{section.1.1}
\contentsline {section}{\numberline {1.2}Including Media}{1}{section.1.2}
\contentsline {section}{\numberline {1.3}Structure}{2}{section.1.3}
\contentsline {paragraph}{Some idea}{2}{section*.4}
\contentsline {paragraph}{Important}{2}{section*.5}
\contentsline {section}{\numberline {1.4}Tables}{3}{section.1.4}
